Character,"Data Type","comics Name","comics Description","comics publish date"
hulk,comics,,test
hulk,comics,"For Doctor Bruce Banner life is anything but normal. But what happens when two women get between him and his alter ego, the Incorrigible Hulk? Hulk confused! 
Indy superstar Peter Bagge (THE MEGALOMANIACAL SPIDER-MAN) takes a satirical jab at the Hulk mythos with a tale of dames, debauchery and destruction.
32 PGS./MARVEL PSR...$2.99",test
hulk,comics,"After picking fights with the Juggernaut, Norman Osborn, and the Wolverine clan, the most insane father and son team in the Marvel Universe might actually be bonding.  But everything's about to blow wide open for Bruce Banner and his big, green, barbarian son Skaar when one of the Hulk's greatest enemies brings back the most important villainess Bruce Banner's ever faced.  Who is the Harpy?  And whose side will Banner take when she and Skaar meet sword to claw in a gamma-powered deathmatch?  Stone might bleed, feathers might fly, and hearts might break in the highest stakes battle yet for Banner and Son! Plus, The Savage SHE-HULK continues her quest to find
Jennifer Walters in a back-up by Fred Van Lente and
Michael Ryan!
Rated A ...$3.99",test
hulk,comics,"Collects Zombies Assemble 2 #1-4. The Avengers face a threat even bigger and more menacing than they could have imagined as the stakes are raised in the race to cure the zombie outbreak! Caught in a massive explosion, Captain America, Hawkeye and Iron Man wake up in the midst of a city overrun by zombies. Miraculously, they find they haven’t been turned, though they come face-to-face with Jasper Scott — a mysterious scientist who claims to have a cure for the virus. But who is he really, and does he actually possess the antivirus Bruce Banner has been struggling to create? More important: Is the Hulk immune to the zombie plague? Marvel’s English-language adaptation of the original blockbuster manga series rolls on!",test
hulk,comics,"Collects Iron Man (1968) #245-257, Annual #10-11 and material from Captain America Annual #9. Iron Man and Doctor Doom face off in the future! The armored foes renew their rivalry in a future version of Camelot, where they must join a reborn Arthur and Merlin in battle against some very familiar faces! Then, Loki cultivates chaos as his Acts of Vengeance pit shell-head against the Wrecker and Chemistro! Inside the armor, Tony Stark continues to come to terms with his paralysis, and the Maggia makes its move — but what is its involvement with Hydra and A.I.M.? Plus: Iron Man and Crimson Dynamo see the world through each other’s eyes! Tony defends the surface when Atlantis attacks! Iron Man and Captain America join forces to deal with the return of Terminus! And don’t forget the Dreadnoughts, Madame Masque, the Hulk and…Santa Claus?!",test
hulk,comics,"Can Captain America and Iron Man put aside their differences before Ultron can make his final move? The grand finale to MARVEL UNIVERSE AVENGERS ASSEMBLE: CIVIL WAR is here!",test
hulk,comics,"United they stand! The divided Avengers will need to reunite to save the world from ultimate destruction!",test
hulk,comics,"Collects Tales To Astonish (1994) #1, Incredible Hulk vs. Venom #1, Incredible Hulk (1968) #420-435. Hulk goes to Hel and back! First, Hulk and the Pantheon face a painful — and all too human — loss. But Hela herself soon claims the Hulk in an Asgardian underworld epic! Then, it’s the end of an era as the Pantheon is torn apart from within! Agamemnon stands trial, one among them falls and the Hulk’s rage transforms him into a savage…Bruce Banner?! While Doc Samson strives to save Bruce’s mind, Betty battles for her life — and the stage is set for a new status quo. In hiding and struggling to remain calm, the Hulk takes on Man-Thing, the Abomination and the Punisher! Plus: Hulk shares a symbiotic showdown with Venom and joins Hank Pym and the Wasp in a true Tale to Astonish!",test
hulk,comics,"Captain America and his half of the Avengers team discover S.H.I.E.L.D. isn't everything they thought it was…",test
hulk,comics,"THE AVENGERS SPLIT IN TWO! With only half of the team on his side, and Avengers Tower wiped out by his new creation, Iron Man seeks help from an ally — only to land them in deeper danger!",test
hulk,comics,"Collects Tales to Astonish (1994) #1, Strange Tales (1994) #1, Tales of Suspense (1995) #1. Classic comic book titles from the past inspire fully painted Marvel masterworks featuring some of the world's greatest heroes! When a sadistic killer who claims to be descended from Loki goes on the rampage, it will take three Avengers to face a mad Viking - Hank Pym, the Wasp and the Hulk! Things take a turn for the monstrous in stories featuring Doctor Strange, the Thing, Human Torch and Nick Fury! And old friends Captain America and Iron Man are recruited by S.H.I.E.L.D. to stop a deadly new terror threat using Stark technology! Celebrate the heroic legacy of the Marvel Age of Comics with these strange tales of suspense guaranteed to astonish!",test
hulk,comics,"Collects Marvel Mangaverse #1-6, New Dawn, Avengers Assemble, Fantastic Four, Ghost Riders, Punisher, Spider-Man, X-Men, Eternity Twilight. East meets West as your favorite heroes are reimagined in hyper-kinetic style by some of the most celebrated artists of the massively popular Japanese art form, manga! It's a new dawn as the Marvel Universe emerges like never before. Brace yourself for a kaiju-esque Hulk and a mecha-style Iron Man! Plus versions of the Avengers, Spider-Man, Punisher, Ghost Rider, the X-Men and more unlike anything you've ever seen before! The excitement only builds with a fresh take on the Galactus saga, manga-fied! Can the Fantastic Four and friends save the day, or are they destined to meet their Doom?! Make yours Marvel manga!",test
hulk,comics,"THE AVENGERS race against the clock to figure out a way to bring back the Angry Green Monster on their team, A.K.A., the HULK! Will Bruce Banner ever transform into the Incredible Hulk again?",test
hulk,comics,"Collects Totally Awesome Hulk #19, 23, 1.MU; Generations: Banner Hulk & Totally Awesome Hulk #1, Moon Girl and Devil Dinosaur #4. Amadeus Cho is hunted by Weapon X! After their experiments push him to the brink, can he return to his fun-loving ways, or is the monster permanently out of the trunk? Plus, the Hulks come face-to-face at last in an inter-generational encounter between Amadeus Cho and his mentor, the incredible Bruce Banner! Discover who truly is the strongest one there is! With Monsters Unleashed across the Marvel Universe, Amadeus teams with South Korean sensation the White Fox, while Maddy Cho turns to an unlikely ally - intergalactic monster hunter, Lady Hellbender! And, the Hulk may think he's the world's greatest combination of brains and brawn - but wait until he meets Moon Girl and Devil Dinosaur!",test
hulk,comics,"BRUCE BANNER…UNHULKED?! After a nuclear accident, Bruce Banner is stripped of his angry alter ego — the Incredible Hulk!",test
hulk,comics,"Collects Marvel Universe Avengers: Ultron Revolution #9-12. The Avengers take on the Inhumans! When several townspeople mysteriously transform into primitive beings, the Avengers must step in and try to help. However, this puts Earth's Mightiest Heroes at odds with another super-powered group - the truly uncanny Inhumans! Will the Avengers be able to do the right thing in the face of conflict? Or will tensions boil over into an all-out battle?! You know you're hoping for option B!",test
hulk,comics,"Your favorite heroes from the movies, in blockbuster comic-book adventures! Captain America, Iron Man, Thor, Hawkeye, Black Widow and the Hulk have assembled as the Avengers, but their teamwork needs, well, work when Hydra strikes! Hank Pym is the original Ant-Man, the little hero with a flair for big trouble! Cap and the Widow must forge a new Avengers squad from fresh recruits Scarlet Witch, Vision, Falcon and War Machine! Stephen Strange struggles to master the mystic arts! The Guardians of the Galaxy are targeted by one of the deadliest bounty hunters in the cosmos: Death’s Head! And Spider-Man must foil the Crime Master’s master plan! Collecting AVENGERS: OPERATION HYDRA #1, ANT-MAN: LARGER THAN LIFE #1, CAPTAIN AMERICA: ROAD TO WAR #1, DOCTOR STRANGE: MYSTIC APPRENTICE #1, GUARDIANS OF THE GALAXY: DREAM ON #1 and SPIDER-MAN: MASTER PLAN #1.",test
hulk,comics,"Captain America takes a stand against Iron Man! It's time: whose side are you on in this super hero Civil War?",test
hulk,comics,"Once upon a time, a skinny kid from New York City picked up a shield and charged into battle... a prodigal son lifted a sacred hammer and proved himself worthy... and an arrogant genius forged an armor that would harness his true potential. And together, they became Earth's Mightiest Heroes. Today, that heroic legacy lives on in the next generation of heroes - and it will be put to the test as the Marvel Universe's greatest champions unite and charge headlong into tomorrow! Collecting Generations: Banner Hulk & The Totally Awesome Hulk #1, Generations: Captain Marvel & Captain Mar-Vell #1, Generations: Captain Marvel & Ms. Marvel #1, Generations: Hawkeye & Hawkeye #1, Generations: Iron Man & Ironheart #1, Generations: Miles Morales Spider-Man & Peter Parker Spider-Man #1, Generations: Phoenix & Jean Grey #1, Generations: Sam Wilson Captain America & Steve Rogers Captain America #1, Generations: The Unworthy Thor & The Mighty Thor #1, Generations: Wolverine & All-New Wolverine #1.",test
hulk,comics,"SECRETS THREATEN TO DESTROY THE AVENGERS! Find out the secret Iron Man has kept from the team...and how it will change the Avengers' future!",test
